PS270 Final Project
…
My hypothesis would be supported if the regression shows a negative relationship, meaning higher polarization is associated with fewer laws passed.

library(readr)
library(tidyverse)
library(gapminder)
library(dplyr)

polarization <- read_csv(
  "https://raw.githubusercontent.com/justin-2028/Political-Polarization-in-US-Congress/main/Political%20Polarization%20in%20US%20Congress%20(Assorted).csv"
)
polarization

# A tibble: 144 × 22
   chamber congress  year party.mean.diff.d1 prop.moderate.d1
   <chr>      <dbl> <dbl>              <dbl>            <dbl>
 1 House         46  1879              0.786            0.130
 2 Senate        46  1879              0.748            0.160
 3 House         47  1881              0.783            0.100
 4 Senate        47  1881              0.764            0.141
 5 House         48  1883              0.724            0.216
 6 Senate        48  1883              0.760            0.141
 7 House         49  1885              0.749            0.148
 8 Senate        49  1885              0.744            0.155
 9 House         50  1887              0.765            0.161
10 Senate        50  1887              0.747            0.156
# ℹ 134 more rows
# ℹ 17 more variables: prop.moderate.dem.d1 <dbl>,
#   prop.moderate.rep.d1 <dbl>, overlap <dbl>, chamber.mean.d1 <dbl>,
#   chamber.mean.d2 <dbl>, dem.mean.d1 <dbl>, dem.mean.d2 <dbl>,
#   rep.mean.d1 <dbl>, rep.mean.d2 <dbl>, north.rep.mean.d1 <dbl>,
#   north.rep.mean.d2 <dbl>, south.rep.mean.d1 <dbl>,
#   south.rep.mean.d2 <dbl>, north.dem.mean.d1 <dbl>, …

laws <- read_csv("osfstorage-archive/master.csv")
laws

# A tibble: 49,746 × 18
   row_number action Title      sal_volume sal_page_start BillCitation
        <dbl> <chr>  <chr>           <dbl>          <dbl> <chr>       
 1          1 An Act To regula…          1             23 <NA>        
 2          2 An Act For layin…          1             24 <NA>        
 3          3 An Act Imposing …          1             27 <NA>        
 4          4 An Act For estab…          1             28 <NA>        
 5          5 An Act To regula…          1             29 <NA>        
 6          6 An Act For settl…          1             49 <NA>        
 7          7 An Act To establ…          1             49 <NA>        
 8          8 An Act To provid…          1             50 <NA>        
 9          9 An Act For the e…          1             53 <NA>        
10         10 An Act Providing…          1             54 <NA>        
# ℹ 49,736 more rows
# ℹ 12 more variables: congress_number <dbl>, chapter <dbl>,
#   session_number <dbl>, pl_no <chr>, date_of_passage <date>,
#   secondary_date <date>, dates_conflict <lgl>, Source <chr>,
#   URL <chr>, alternate_sal_volume <dbl>,
#   alternate_sal_page_start <dbl>, has_alternate_sal_citation <lgl>

Cleaning the Data

library(dplyr)
library(ggplot2)

clean_data <- polarization |>
  select(congress, year, prop.moderate.d1, party.mean.diff.d1) |>
  filter(!is.na(prop.moderate.d1), !is.na(party.mean.diff.d1))
clean_data

# A tibble: 144 × 4
   congress  year prop.moderate.d1 party.mean.diff.d1
      <dbl> <dbl>            <dbl>              <dbl>
 1       46  1879            0.130              0.786
 2       46  1879            0.160              0.748
 3       47  1881            0.100              0.783
 4       47  1881            0.141              0.764
 5       48  1883            0.216              0.724
 6       48  1883            0.141              0.760
 7       49  1885            0.148              0.749
 8       49  1885            0.155              0.744
 9       50  1887            0.161              0.765
10       50  1887            0.156              0.747
# ℹ 134 more rows

  clean_data <- clean_data |>
  rename(
    Moderates = prop.moderate.d1,
    Polarization = party.mean.diff.d1
  )
clean_data

# A tibble: 144 × 4
   congress  year Moderates Polarization
      <dbl> <dbl>     <dbl>        <dbl>
 1       46  1879     0.130        0.786
 2       46  1879     0.160        0.748
 3       47  1881     0.100        0.783
 4       47  1881     0.141        0.764
 5       48  1883     0.216        0.724
 6       48  1883     0.141        0.760
 7       49  1885     0.148        0.749
 8       49  1885     0.155        0.744
 9       50  1887     0.161        0.765
10       50  1887     0.156        0.747
# ℹ 134 more rows

laws_clean <- laws |>
  mutate(
    date_of_passage = as.Date(date_of_passage),
    year = as.integer(format(date_of_passage, "%Y"))
  ) |>
  group_by(year) |>
  summarize(Laws_Passed = n())
laws_clean

# A tibble: 230 × 2
    year Laws_Passed
   <int>       <int>
 1  1789          26
 2  1790          41
 3  1791          29
 4  1792          37
 5  1793          25
 6  1794          56
 7  1795          38
 8  1796          49
 9  1797          41
10  1798          74
# ℹ 220 more rows

Join the Data

merged_data <- inner_join(clean_data, laws_clean, by = "year")
merged_data

# A tibble: 140 × 5
   congress  year Moderates Polarization Laws_Passed
      <dbl> <dbl>     <dbl>        <dbl>       <int>
 1       46  1879     0.130        0.786         183
 2       46  1879     0.160        0.748         183
 3       47  1881     0.100        0.783         115
 4       47  1881     0.141        0.764         115
 5       48  1883     0.216        0.724         107
 6       48  1883     0.141        0.760         107
 7       49  1885     0.148        0.749         121
 8       49  1885     0.155        0.744         121
 9       50  1887     0.161        0.765         197
10       50  1887     0.156        0.747         197
# ℹ 130 more rows
…
